{
  "main": {
    "id": "54dfbc39e84cd1d3",
    "type": "split",
    "children": [
      {
        "id": "7bdd6f992634f0da",
        "type": "tabs",
        "children": [
          {
            "id": "8ee929348a7f023d",
            "type": "leaf",
            "state": {
              "type": "markdown",
              "state": {
                "file": "Testing/Power Automate/Get started with Power Automate for desktop.md",
                "mode": "source",
                "source": true
              }
            }
          }
        ]
      }
    ],
    "direction": "vertical"
  },
  "left": {
    "id": "94003553c55d6c81",
    "type": "split",
    "children": [
      {
        "id": "6ae96f3b74facae7",
        "type": "tabs",
        "children": [
          {
            "id": "928d903d4a35e02d",
            "type": "leaf",
            "state": {
              "type": "file-explorer",
              "state": {
                "sortOrder": "byModifiedTimeReverse"
              }
            }
          },
          {
            "id": "fc7495f1d37bdc62",
            "type": "leaf",
            "state": {
              "type": "search",
              "state": {
                "query": "tag:#principles",
                "matchingCase": false,
                "explainSearch": false,
                "collapseAll": false,
                "extraContext": false,
                "sortOrder": "alphabetical"
              }
            }
          },
          {
            "id": "ea39a65dcf800103",
            "type": "leaf",
            "state": {
              "type": "starred",
              "state": {}
            }
          }
        ]
      }
    ],
    "direction": "horizontal",
    "width": 539.5124969482422
  },
  "right": {
    "id": "0e39e6f3d3cb91ad",
    "type": "split",
    "children": [
      {
        "id": "93015e20dd976caf",
        "type": "tabs",
        "children": [
          {
            "id": "54ff09c095dc0f1a",
            "type": "leaf",
            "state": {
              "type": "backlink",
              "state": {
                "file": "Testing/Power Automate/Get started with Power Automate for desktop.md",
                "collapseAll": false,
                "extraContext": false,
                "sortOrder": "alphabetical",
                "showSearch": false,
                "searchQuery": "",
                "backlinkCollapsed": false,
                "unlinkedCollapsed": true
              }
            }
          },
          {
            "id": "d7b9083d79fd7707",
            "type": "leaf",
            "state": {
              "type": "outgoing-link",
              "state": {
                "file": "Testing/Power Automate/Get started with Power Automate for desktop.md",
                "linksCollapsed": false,
                "unlinkedCollapsed": true
              }
            }
          },
          {
            "id": "09edf3a28dc15e7a",
            "type": "leaf",
            "state": {
              "type": "tag",
              "state": {
                "sortOrder": "alphabetical",
                "useHierarchy": true
              }
            }
          },
          {
            "id": "2b46266067bf0eb7",
            "type": "leaf",
            "state": {
              "type": "outline",
              "state": {
                "file": "Testing/Power Automate/Get started with Power Automate for desktop.md"
              }
            }
          }
        ],
        "currentTab": 3
      }
    ],
    "direction": "horizontal",
    "width": 302.5,
    "collapsed": true
  },
  "left-ribbon": {
    "hiddenItems": {
      "switcher:Open quick switcher": false,
      "graph:Open graph view": false,
      "canvas:Create new canvas": false,
      "daily-notes:Open today's daily note": false,
      "templates:Insert template": false,
      "command-palette:Open command palette": false,
      "obsidian-book-search-plugin:Create new book note": false
    }
  },
  "active": "8ee929348a7f023d",
  "lastOpenFiles": [
    "Testing/Power Automate/Overview.md",
    "Abroad Study Planner/Study Abroad Planning.md",
    "Templates/Untitled.md",
    "Neural Networks/Cleveland Heart Disease Assignment/Task Outline - Cleveland.md",
    "Neural Networks/Cleveland Heart Disease Assignment/Exploratory Data Analysis - Cleveland.md",
    "Neural Networks/Cleveland Heart Disease Assignment/Dataset Analysis - Cleveland.md",
    "Templates/Template - Outline.md",
    "Neural Networks/Cleveland Heart Disease Assignment/Citations - Cleveland.md",
    "Neural Networks/Assignments or Projects.md",
    "HackTheBox/Fundamental.md"
  ]
}